{

  "results": [
    {
      "utc_offset": -18000000,
      "venue": {
        "zip": "77005",
        "country": "us",
        "city": "Houston",
        "address_1": "5504 Morningside Drive, Houston, TX 77005",
        "name": "Platform Houston",
        "lon": -95.415161,
        "id": 10251932,
        "state": "TX",
        "lat": 29.716442,
        "repinned": false
      },
      "headcount": 0,
      "visibility": "public",
      "waitlist_count": 0,
      "created": 1391402959000,
      "maybe_rsvp_count": 0,
      "description": "<p>Hi ladies,</p> <p>Please join us in working together Saturday afternoon, April 11. Bring your coding projects and questions. All skill levels welcome! Invite anyone you know who has coding projects or even online learning they would like to do.</p> <p>We are looking to provide a friendly and helpful environment to ladies who code or are learning to code.</p> <p>There will be snacks and drinks =).</p> <p>Thank you Platform for sponsoring us!</p>",
      "event_url": "http://www.meetup.com/Girls-Coding-Club/events/221151671/",
      "yes_rsvp_count": 8,
      "duration": 10800000,
      "name": "Let's Code Together!",
      "id": "qbtcthytgbpb",
      "time": 1428174000000,
      "updated": 1426964900000,
      "group": {
        "join_mode": "approval",
        "created": 1382105295000,
        "name": "Girls Coding Club",
        "group_lon": -95.38999938964844,
        "id": 10741142,
        "urlname": "Girls-Coding-Club",
        "group_lat": 29.739999771118164,
        "who": "Coders"
      },
      "status": "upcoming"
    },
    {
      "utc_offset": -18000000,
      "headcount": 0,
      "visibility": "public",
      "waitlist_count": 0,
      "created": 1391402959000,
      "maybe_rsvp_count": 0,
      "description": "<p>Hi ladies,</p> <p>Please join us in working together Saturday afternoon, February 1st. Bring your coding projects and questions. All skill levels welcome! Invite anyone you know who has coding projects or even online learning they would like to do.</p> <p>We are looking to provide a friendly and helpful environment to ladies who code or are learning to code.</p> <p>There will be snacks and drinks =).</p> <p>We will confirm a location as this session approaches, but we will probably meet at either Brightwork or Platform.</p>",
      "event_url": "http://www.meetup.com/Girls-Coding-Club/events/221155819/",
      "yes_rsvp_count": 2,
      "duration": 10800000,
      "name": "Let's Code Together!",
      "id": "qbtcthytgbhc",
      "time": 1429988400000,
      "updated": 1391402959000,
      "group": {
        "join_mode": "approval",
        "created": 1382105295000,
        "name": "Girls Coding Club",
        "group_lon": -95.38999938964844,
        "id": 10741142,
        "urlname": "Girls-Coding-Club",
        "group_lat": 29.739999771118164,
        "who": "Coders"
      },
      "status": "upcoming"
    },
    {
      "utc_offset": -18000000,
      "headcount": 0,
      "visibility": "public",
      "waitlist_count": 0,
      "created": 1391402959000,
      "maybe_rsvp_count": 0,
      "description": "<p>Hi ladies,</p> <p>Please join us in working together Saturday afternoon, February 1st. Bring your coding projects and questions. All skill levels welcome! Invite anyone you know who has coding projects or even online learning they would like to do.</p> <p>We are looking to provide a friendly and helpful environment to ladies who code or are learning to code.</p> <p>There will be snacks and drinks =).</p> <p>We will confirm a location as this session approaches, but we will probably meet at either Brightwork or Platform.</p>",
      "event_url": "http://www.meetup.com/Girls-Coding-Club/events/qbtcthythbmb/",
      "yes_rsvp_count": 1,
      "duration": 10800000,
      "name": "Let's Code Together!",
      "id": "qbtcthythbmb",
      "time": 1431198000000,
      "updated": 1391402959000,
      "group": {
        "join_mode": "approval",
        "created": 1382105295000,
        "name": "Girls Coding Club",
        "group_lon": -95.38999938964844,
        "id": 10741142,
        "urlname": "Girls-Coding-Club",
        "group_lat": 29.739999771118164,
        "who": "Coders"
      },
      "status": "upcoming"
    },
    {
      "utc_offset": -18000000,
      "headcount": 0,
      "visibility": "public",
      "waitlist_count": 0,
      "created": 1391402959000,
      "maybe_rsvp_count": 0,
      "description": "<p>Hi ladies,</p> <p>Please join us in working together Saturday afternoon, February 1st. Bring your coding projects and questions. All skill levels welcome! Invite anyone you know who has coding projects or even online learning they would like to do.</p> <p>We are looking to provide a friendly and helpful environment to ladies who code or are learning to code.</p> <p>There will be snacks and drinks =).</p> <p>We will confirm a location as this session approaches, but we will probably meet at either Brightwork or Platform.</p>",
      "event_url": "http://www.meetup.com/Girls-Coding-Club/events/qbtcthythbfc/",
      "yes_rsvp_count": 1,
      "duration": 10800000,
      "name": "Let's Code Together!",
      "id": "qbtcthythbfc",
      "time": 1432407600000,
      "updated": 1391402959000,
      "group": {
        "join_mode": "approval",
        "created": 1382105295000,
        "name": "Girls Coding Club",
        "group_lon": -95.38999938964844,
        "id": 10741142,
        "urlname": "Girls-Coding-Club",
        "group_lat": 29.739999771118164,
        "who": "Coders"
      },
      "status": "upcoming"
    },
    {
      "utc_offset": -18000000,
      "headcount": 0,
      "visibility": "public",
      "waitlist_count": 0,
      "created": 1391402959000,
      "maybe_rsvp_count": 0,
      "description": "<p>Hi ladies,</p> <p>Please join us in working together Saturday afternoon, February 1st. Bring your coding projects and questions. All skill levels welcome! Invite anyone you know who has coding projects or even online learning they would like to do.</p> <p>We are looking to provide a friendly and helpful environment to ladies who code or are learning to code.</p> <p>There will be snacks and drinks =).</p> <p>We will confirm a location as this session approaches, but we will probably meet at either Brightwork or Platform.</p>",
      "event_url": "http://www.meetup.com/Girls-Coding-Club/events/qbtcthytjbjb/",
      "yes_rsvp_count": 1,
      "duration": 10800000,
      "name": "Let's Code Together!",
      "id": "qbtcthytjbjb",
      "time": 1433617200000,
      "updated": 1391402959000,
      "group": {
        "join_mode": "approval",
        "created": 1382105295000,
        "name": "Girls Coding Club",
        "group_lon": -95.38999938964844,
        "id": 10741142,
        "urlname": "Girls-Coding-Club",
        "group_lat": 29.739999771118164,
        "who": "Coders"
      },
      "status": "upcoming"
    },
    {
      "utc_offset": -18000000,
      "headcount": 0,
      "visibility": "public",
      "waitlist_count": 0,
      "created": 1391402959000,
      "maybe_rsvp_count": 0,
      "description": "<p>Hi ladies,</p> <p>Please join us in working together Saturday afternoon, February 1st. Bring your coding projects and questions. All skill levels welcome! Invite anyone you know who has coding projects or even online learning they would like to do.</p> <p>We are looking to provide a friendly and helpful environment to ladies who code or are learning to code.</p> <p>There will be snacks and drinks =).</p> <p>We will confirm a location as this session approaches, but we will probably meet at either Brightwork or Platform.</p>",
      "event_url": "http://www.meetup.com/Girls-Coding-Club/events/qbtcthytjbbc/",
      "yes_rsvp_count": 1,
      "duration": 10800000,
      "name": "Let's Code Together!",
      "id": "qbtcthytjbbc",
      "time": 1434826800000,
      "updated": 1391402959000,
      "group": {
        "join_mode": "approval",
        "created": 1382105295000,
        "name": "Girls Coding Club",
        "group_lon": -95.38999938964844,
        "id": 10741142,
        "urlname": "Girls-Coding-Club",
        "group_lat": 29.739999771118164,
        "who": "Coders"
      },
      "status": "upcoming"
    },
    {
      "utc_offset": -18000000,
      "headcount": 0,
      "visibility": "public",
      "waitlist_count": 0,
      "created": 1391402959000,
      "maybe_rsvp_count": 0,
      "description": "<p>Hi ladies,</p> <p>Please join us in working together Saturday afternoon, February 1st. Bring your coding projects and questions. All skill levels welcome! Invite anyone you know who has coding projects or even online learning they would like to do.</p> <p>We are looking to provide a friendly and helpful environment to ladies who code or are learning to code.</p> <p>There will be snacks and drinks =).</p> <p>We will confirm a location as this session approaches, but we will probably meet at either Brightwork or Platform.</p>",
      "event_url": "http://www.meetup.com/Girls-Coding-Club/events/qbtcthytkbgb/",
      "yes_rsvp_count": 1,
      "duration": 10800000,
      "name": "Let's Code Together!",
      "id": "qbtcthytkbgb",
      "time": 1436036400000,
      "updated": 1391402959000,
      "group": {
        "join_mode": "approval",
        "created": 1382105295000,
        "name": "Girls Coding Club",
        "group_lon": -95.38999938964844,
        "id": 10741142,
        "urlname": "Girls-Coding-Club",
        "group_lat": 29.739999771118164,
        "who": "Coders"
      },
      "status": "upcoming"
    },
    {
      "utc_offset": -18000000,
      "headcount": 0,
      "visibility": "public",
      "waitlist_count": 0,
      "created": 1391402959000,
      "maybe_rsvp_count": 0,
      "description": "<p>Hi ladies,</p> <p>Please join us in working together Saturday afternoon, February 1st. Bring your coding projects and questions. All skill levels welcome! Invite anyone you know who has coding projects or even online learning they would like to do.</p> <p>We are looking to provide a friendly and helpful environment to ladies who code or are learning to code.</p> <p>There will be snacks and drinks =).</p> <p>We will confirm a location as this session approaches, but we will probably meet at either Brightwork or Platform.</p>",
      "event_url": "http://www.meetup.com/Girls-Coding-Club/events/qbtcthytkbxb/",
      "yes_rsvp_count": 1,
      "duration": 10800000,
      "name": "Let's Code Together!",
      "id": "qbtcthytkbxb",
      "time": 1437246000000,
      "updated": 1391402959000,
      "group": {
        "join_mode": "approval",
        "created": 1382105295000,
        "name": "Girls Coding Club",
        "group_lon": -95.38999938964844,
        "id": 10741142,
        "urlname": "Girls-Coding-Club",
        "group_lat": 29.739999771118164,
        "who": "Coders"
      },
      "status": "upcoming"
    },
    {
      "utc_offset": -18000000,
      "headcount": 0,
      "visibility": "public",
      "waitlist_count": 0,
      "created": 1391402959000,
      "maybe_rsvp_count": 0,
      "description": "<p>Hi ladies,</p> <p>Please join us in working together Saturday afternoon, February 1st. Bring your coding projects and questions. All skill levels welcome! Invite anyone you know who has coding projects or even online learning they would like to do.</p> <p>We are looking to provide a friendly and helpful environment to ladies who code or are learning to code.</p> <p>There will be snacks and drinks =).</p> <p>We will confirm a location as this session approaches, but we will probably meet at either Brightwork or Platform.</p>",
      "event_url": "http://www.meetup.com/Girls-Coding-Club/events/qbtcthytlbcb/",
      "yes_rsvp_count": 1,
      "duration": 10800000,
      "name": "Let's Code Together!",
      "id": "qbtcthytlbcb",
      "time": 1438455600000,
      "updated": 1391402959000,
      "group": {
        "join_mode": "approval",
        "created": 1382105295000,
        "name": "Girls Coding Club",
        "group_lon": -95.38999938964844,
        "id": 10741142,
        "urlname": "Girls-Coding-Club",
        "group_lat": 29.739999771118164,
        "who": "Coders"
      },
      "status": "upcoming"
    },
    {
      "utc_offset": -18000000,
      "headcount": 0,
      "visibility": "public",
      "waitlist_count": 0,
      "created": 1391402959000,
      "maybe_rsvp_count": 0,
      "description": "<p>Hi ladies,</p> <p>Please join us in working together Saturday afternoon, February 1st. Bring your coding projects and questions. All skill levels welcome! Invite anyone you know who has coding projects or even online learning they would like to do.</p> <p>We are looking to provide a friendly and helpful environment to ladies who code or are learning to code.</p> <p>There will be snacks and drinks =).</p> <p>We will confirm a location as this session approaches, but we will probably meet at either Brightwork or Platform.</p>",
      "event_url": "http://www.meetup.com/Girls-Coding-Club/events/qbtcthytlbtb/",
      "yes_rsvp_count": 1,
      "duration": 10800000,
      "name": "Let's Code Together!",
      "id": "qbtcthytlbtb",
      "time": 1439665200000,
      "updated": 1391402959000,
      "group": {
        "join_mode": "approval",
        "created": 1382105295000,
        "name": "Girls Coding Club",
        "group_lon": -95.38999938964844,
        "id": 10741142,
        "urlname": "Girls-Coding-Club",
        "group_lat": 29.739999771118164,
        "who": "Coders"
      },
      "status": "upcoming"
    },
    {
      "utc_offset": -18000000,
      "headcount": 0,
      "visibility": "public",
      "waitlist_count": 0,
      "created": 1391402959000,
      "maybe_rsvp_count": 0,
      "description": "<p>Hi ladies,</p> <p>Please join us in working together Saturday afternoon, February 1st. Bring your coding projects and questions. All skill levels welcome! Invite anyone you know who has coding projects or even online learning they would like to do.</p> <p>We are looking to provide a friendly and helpful environment to ladies who code or are learning to code.</p> <p>There will be snacks and drinks =).</p> <p>We will confirm a location as this session approaches, but we will probably meet at either Brightwork or Platform.</p>",
      "event_url": "http://www.meetup.com/Girls-Coding-Club/events/qbtcthytlbmc/",
      "yes_rsvp_count": 1,
      "duration": 10800000,
      "name": "Let's Code Together!",
      "id": "qbtcthytlbmc",
      "time": 1440874800000,
      "updated": 1391402959000,
      "group": {
        "join_mode": "approval",
        "created": 1382105295000,
        "name": "Girls Coding Club",
        "group_lon": -95.38999938964844,
        "id": 10741142,
        "urlname": "Girls-Coding-Club",
        "group_lat": 29.739999771118164,
        "who": "Coders"
      },
      "status": "upcoming"
    },
    {
      "utc_offset": -18000000,
      "headcount": 0,
      "visibility": "public",
      "waitlist_count": 0,
      "created": 1391402959000,
      "maybe_rsvp_count": 0,
      "description": "<p>Hi ladies,</p> <p>Please join us in working together Saturday afternoon, February 1st. Bring your coding projects and questions. All skill levels welcome! Invite anyone you know who has coding projects or even online learning they would like to do.</p> <p>We are looking to provide a friendly and helpful environment to ladies who code or are learning to code.</p> <p>There will be snacks and drinks =).</p> <p>We will confirm a location as this session approaches, but we will probably meet at either Brightwork or Platform.</p>",
      "event_url": "http://www.meetup.com/Girls-Coding-Club/events/qbtcthytmbqb/",
      "yes_rsvp_count": 1,
      "duration": 10800000,
      "name": "Let's Code Together!",
      "id": "qbtcthytmbqb",
      "time": 1442084400000,
      "updated": 1391402959000,
      "group": {
        "join_mode": "approval",
        "created": 1382105295000,
        "name": "Girls Coding Club",
        "group_lon": -95.38999938964844,
        "id": 10741142,
        "urlname": "Girls-Coding-Club",
        "group_lat": 29.739999771118164,
        "who": "Coders"
      },
      "status": "upcoming"
    },
    {
      "utc_offset": -18000000,
      "headcount": 0,
      "visibility": "public",
      "waitlist_count": 0,
      "created": 1391402959000,
      "maybe_rsvp_count": 0,
      "description": "<p>Hi ladies,</p> <p>Please join us in working together Saturday afternoon, February 1st. Bring your coding projects and questions. All skill levels welcome! Invite anyone you know who has coding projects or even online learning they would like to do.</p> <p>We are looking to provide a friendly and helpful environment to ladies who code or are learning to code.</p> <p>There will be snacks and drinks =).</p> <p>We will confirm a location as this session approaches, but we will probably meet at either Brightwork or Platform.</p>",
      "event_url": "http://www.meetup.com/Girls-Coding-Club/events/qbtcthytmbjc/",
      "yes_rsvp_count": 1,
      "duration": 10800000,
      "name": "Let's Code Together!",
      "id": "qbtcthytmbjc",
      "time": 1443294000000,
      "updated": 1391402959000,
      "group": {
        "join_mode": "approval",
        "created": 1382105295000,
        "name": "Girls Coding Club",
        "group_lon": -95.38999938964844,
        "id": 10741142,
        "urlname": "Girls-Coding-Club",
        "group_lat": 29.739999771118164,
        "who": "Coders"
      },
      "status": "upcoming"
    },
    {
      "utc_offset": -18000000,
      "headcount": 0,
      "visibility": "public",
      "waitlist_count": 0,
      "created": 1391402959000,
      "maybe_rsvp_count": 0,
      "description": "<p>Hi ladies,</p> <p>Please join us in working together Saturday afternoon, February 1st. Bring your coding projects and questions. All skill levels welcome! Invite anyone you know who has coding projects or even online learning they would like to do.</p> <p>We are looking to provide a friendly and helpful environment to ladies who code or are learning to code.</p> <p>There will be snacks and drinks =).</p> <p>We will confirm a location as this session approaches, but we will probably meet at either Brightwork or Platform.</p>",
      "event_url": "http://www.meetup.com/Girls-Coding-Club/events/qbtcthytnbnb/",
      "yes_rsvp_count": 1,
      "duration": 10800000,
      "name": "Let's Code Together!",
      "id": "qbtcthytnbnb",
      "time": 1444503600000,
      "updated": 1391402959000,
      "group": {
        "join_mode": "approval",
        "created": 1382105295000,
        "name": "Girls Coding Club",
        "group_lon": -95.38999938964844,
        "id": 10741142,
        "urlname": "Girls-Coding-Club",
        "group_lat": 29.739999771118164,
        "who": "Coders"
      },
      "status": "upcoming"
    },
    {
      "utc_offset": -18000000,
      "headcount": 0,
      "visibility": "public",
      "waitlist_count": 0,
      "created": 1391402959000,
      "maybe_rsvp_count": 0,
      "description": "<p>Hi ladies,</p> <p>Please join us in working together Saturday afternoon, February 1st. Bring your coding projects and questions. All skill levels welcome! Invite anyone you know who has coding projects or even online learning they would like to do.</p> <p>We are looking to provide a friendly and helpful environment to ladies who code or are learning to code.</p> <p>There will be snacks and drinks =).</p> <p>We will confirm a location as this session approaches, but we will probably meet at either Brightwork or Platform.</p>",
      "event_url": "http://www.meetup.com/Girls-Coding-Club/events/qbtcthytnbgc/",
      "yes_rsvp_count": 1,
      "duration": 10800000,
      "name": "Let's Code Together!",
      "id": "qbtcthytnbgc",
      "time": 1445713200000,
      "updated": 1391402959000,
      "group": {
        "join_mode": "approval",
        "created": 1382105295000,
        "name": "Girls Coding Club",
        "group_lon": -95.38999938964844,
        "id": 10741142,
        "urlname": "Girls-Coding-Club",
        "group_lat": 29.739999771118164,
        "who": "Coders"
      },
      "status": "upcoming"
    },
    {
      "utc_offset": -21600000,
      "headcount": 0,
      "visibility": "public",
      "waitlist_count": 0,
      "created": 1391402959000,
      "maybe_rsvp_count": 0,
      "description": "<p>Hi ladies,</p> <p>Please join us in working together Saturday afternoon, February 1st. Bring your coding projects and questions. All skill levels welcome! Invite anyone you know who has coding projects or even online learning they would like to do.</p> <p>We are looking to provide a friendly and helpful environment to ladies who code or are learning to code.</p> <p>There will be snacks and drinks =).</p> <p>We will confirm a location as this session approaches, but we will probably meet at either Brightwork or Platform.</p>",
      "event_url": "http://www.meetup.com/Girls-Coding-Club/events/qbtcthytpbkb/",
      "yes_rsvp_count": 1,
      "duration": 10800000,
      "name": "Let's Code Together!",
      "id": "qbtcthytpbkb",
      "time": 1446926400000,
      "updated": 1391402959000,
      "group": {
        "join_mode": "approval",
        "created": 1382105295000,
        "name": "Girls Coding Club",
        "group_lon": -95.38999938964844,
        "id": 10741142,
        "urlname": "Girls-Coding-Club",
        "group_lat": 29.739999771118164,
        "who": "Coders"
      },
      "status": "upcoming"
    },
    {
      "utc_offset": -21600000,
      "headcount": 0,
      "visibility": "public",
      "waitlist_count": 0,
      "created": 1391402959000,
      "maybe_rsvp_count": 0,
      "description": "<p>Hi ladies,</p> <p>Please join us in working together Saturday afternoon, February 1st. Bring your coding projects and questions. All skill levels welcome! Invite anyone you know who has coding projects or even online learning they would like to do.</p> <p>We are looking to provide a friendly and helpful environment to ladies who code or are learning to code.</p> <p>There will be snacks and drinks =).</p> <p>We will confirm a location as this session approaches, but we will probably meet at either Brightwork or Platform.</p>",
      "event_url": "http://www.meetup.com/Girls-Coding-Club/events/qbtcthytpbcc/",
      "yes_rsvp_count": 1,
      "duration": 10800000,
      "name": "Let's Code Together!",
      "id": "qbtcthytpbcc",
      "time": 1448136000000,
      "updated": 1391402959000,
      "group": {
        "join_mode": "approval",
        "created": 1382105295000,
        "name": "Girls Coding Club",
        "group_lon": -95.38999938964844,
        "id": 10741142,
        "urlname": "Girls-Coding-Club",
        "group_lat": 29.739999771118164,
        "who": "Coders"
      },
      "status": "upcoming"
    },
    {
      "utc_offset": -21600000,
      "headcount": 0,
      "visibility": "public",
      "waitlist_count": 0,
      "created": 1391402959000,
      "maybe_rsvp_count": 0,
      "description": "<p>Hi ladies,</p> <p>Please join us in working together Saturday afternoon, February 1st. Bring your coding projects and questions. All skill levels welcome! Invite anyone you know who has coding projects or even online learning they would like to do.</p> <p>We are looking to provide a friendly and helpful environment to ladies who code or are learning to code.</p> <p>There will be snacks and drinks =).</p> <p>We will confirm a location as this session approaches, but we will probably meet at either Brightwork or Platform.</p>",
      "event_url": "http://www.meetup.com/Girls-Coding-Club/events/qbtcthytqbhb/",
      "yes_rsvp_count": 1,
      "duration": 10800000,
      "name": "Let's Code Together!",
      "id": "qbtcthytqbhb",
      "time": 1449345600000,
      "updated": 1391402959000,
      "group": {
        "join_mode": "approval",
        "created": 1382105295000,
        "name": "Girls Coding Club",
        "group_lon": -95.38999938964844,
        "id": 10741142,
        "urlname": "Girls-Coding-Club",
        "group_lat": 29.739999771118164,
        "who": "Coders"
      },
      "status": "upcoming"
    },
    {
      "utc_offset": -21600000,
      "headcount": 0,
      "visibility": "public",
      "waitlist_count": 0,
      "created": 1391402959000,
      "maybe_rsvp_count": 0,
      "description": "<p>Hi ladies,</p> <p>Please join us in working together Saturday afternoon, February 1st. Bring your coding projects and questions. All skill levels welcome! Invite anyone you know who has coding projects or even online learning they would like to do.</p> <p>We are looking to provide a friendly and helpful environment to ladies who code or are learning to code.</p> <p>There will be snacks and drinks =).</p> <p>We will confirm a location as this session approaches, but we will probably meet at either Brightwork or Platform.</p>",
      "event_url": "http://www.meetup.com/Girls-Coding-Club/events/qbtcthytqbzb/",
      "yes_rsvp_count": 1,
      "duration": 10800000,
      "name": "Let's Code Together!",
      "id": "qbtcthytqbzb",
      "time": 1450555200000,
      "updated": 1391402959000,
      "group": {
        "join_mode": "approval",
        "created": 1382105295000,
        "name": "Girls Coding Club",
        "group_lon": -95.38999938964844,
        "id": 10741142,
        "urlname": "Girls-Coding-Club",
        "group_lat": 29.739999771118164,
        "who": "Coders"
      },
      "status": "upcoming"
    },
    {
      "utc_offset": -21600000,
      "headcount": 0,
      "visibility": "public",
      "waitlist_count": 0,
      "created": 1391402959000,
      "maybe_rsvp_count": 0,
      "description": "<p>Hi ladies,</p> <p>Please join us in working together Saturday afternoon, February 1st. Bring your coding projects and questions. All skill levels welcome! Invite anyone you know who has coding projects or even online learning they would like to do.</p> <p>We are looking to provide a friendly and helpful environment to ladies who code or are learning to code.</p> <p>There will be snacks and drinks =).</p> <p>We will confirm a location as this session approaches, but we will probably meet at either Brightwork or Platform.</p>",
      "event_url": "http://www.meetup.com/Girls-Coding-Club/events/qbtcthyvcbdb/",
      "yes_rsvp_count": 1,
      "duration": 10800000,
      "name": "Let's Code Together!",
      "id": "qbtcthyvcbdb",
      "time": 1451764800000,
      "updated": 1391402959000,
      "group": {
        "join_mode": "approval",
        "created": 1382105295000,
        "name": "Girls Coding Club",
        "group_lon": -95.38999938964844,
        "id": 10741142,
        "urlname": "Girls-Coding-Club",
        "group_lat": 29.739999771118164,
        "who": "Coders"
      },
      "status": "upcoming"
    }
  ],
  "meta": {
    "next": "https://api.meetup.com/2/events?offset=1&sign=True&format=json&limited_events=False&group_urlname=Girls-Coding-Club&photo-host=public&page=20&fields=&order=time&status=upcoming&desc=false",
    "method": "Events",
    "total_count": 25,
    "link": "https://api.meetup.com/2/events",
    "count": 20,
    "description": "Access Meetup events using a group, member, or event id. Events in private groups are available only to authenticated members of those groups. To search events by topic or location, see [Open Events](/meetup_api/docs/2/open_events).",
    "lon": "",
    "title": "Meetup Events v2",
    "url": "https://api.meetup.com/2/events?offset=0&sign=True&format=json&limited_events=False&group_urlname=Girls-Coding-Club&photo-host=public&page=20&fields=&order=time&status=upcoming&desc=false",
    "signed_url": "https://api.meetup.com/2/events?offset=0&format=json&limited_events=False&group_urlname=Girls-Coding-Club&photo-host=public&page=20&fields=&order=time&status=upcoming&desc=false&sig_id=49720892&sig=463d277066525510c93f8ddc81456f5d492ebefd",
    "id": "",
    "updated": 1426964900000,
    "lat": ""
  }

}
